net\ravenix\lobbysystem\utils\CloudServer.class
net\ravenix\lobbysystem\LobbySystem.class
net\ravenix\lobbysystem\listener\InventoryClickListener.class
net\ravenix\lobbysystem\listener\JoinQuitListener.class
net\ravenix\lobbysystem\utils\Inventorys.class
net\ravenix\lobbysystem\utils\MultiPage.class
net\ravenix\lobbysystem\listener\InteractAtEntityListener.class
net\ravenix\lobbysystem\listener\ProtectionManager.class
net\ravenix\lobbysystem\listener\PlayerInteractListener.class
net\ravenix\lobbysystem\utils\Locations.class
net\ravenix\lobbysystem\listener\PubSubListener.class
net\ravenix\lobbysystem\utils\Inventorys$Friend.class
net\ravenix\lobbysystem\utils\ItemAPI.class
net\ravenix\lobbysystem\scoreboard\ScoreboardManager.class
